<?xml version="1.0" encoding="UTF-8" standalone="no"?>
<svg
   xmlns:dc="http://purl.org/dc/elements/1.1/"
   xmlns:cc="http://creativecommons.org/ns#"
   xmlns:rdf="http://www.w3.org/1999/02/22-rdf-syntax-ns#"
   xmlns:svg="http://www.w3.org/2000/svg"
   xmlns="http://www.w3.org/2000/svg"
   xmlns:sodipodi="http://sodipodi.sourceforge.net/DTD/sodipodi-0.dtd"
   xmlns:inkscape="http://www.inkscape.org/namespaces/inkscape"
   width="297mm"
   height="210mm"
   viewBox="0 0 297 210"
   version="1.1"
   id="svg8"
   inkscape:export-filename="/home/danialbehzadi/bitmap4.png"
   inkscape:export-xdpi="300"
   inkscape:export-ydpi="300"
   inkscape:version="1.0.1 (3bc2e813f5, 2020-09-07)"
   sodipodi:docname="tehrancoders.svg">
  <defs
     id="defs2" />
  <sodipodi:namedview
     id="base"
     pagecolor="#ffffff"
     bordercolor="#666666"
     borderopacity="1.0"
     inkscape:pageopacity="0.0"
     inkscape:pageshadow="2"
     inkscape:zoom="0.42849977"
     inkscape:cx="516.47452"
     inkscape:cy="242.43584"
     inkscape:document-units="mm"
     inkscape:current-layer="layer1"
     inkscape:document-rotation="0"
     showgrid="false"
     inkscape:window-width="1366"
     inkscape:window-height="768"
     inkscape:window-x="0"
     inkscape:window-y="0"
     inkscape:window-maximized="0" />
  <metadata
     id="metadata5">
    <rdf:RDF>
      <cc:Work
         rdf:about="">
        <dc:format>image/svg+xml</dc:format>
        <dc:type
           rdf:resource="http://purl.org/dc/dcmitype/StillImage" />
        <dc:title></dc:title>
      </cc:Work>
    </rdf:RDF>
  </metadata>
  <g
     inkscape:label="Layer 1"
     inkscape:groupmode="layer"
     id="layer1">
    <path
       id="rect837"
       style="fill:#00a693;fill-opacity:1;stroke:none;stroke-width:0"
       d="m 120.20641,154.04792 v 41.2166 l 28.29182,12.36514 0.002,-65.94703 z m 28.29337,-12.36529 0.002,65.94703 28.29181,-12.36514 v -41.2166 z"
       sodipodi:nodetypes="cccccccccc" />
    <path
       id="rect855"
       style="fill:#0067a5;fill-opacity:1;stroke:none;stroke-width:0"
       d="M 148.49978,2.3703441 120.20641,14.73548 v 137.13118 l 28.29337,-12.36503 28.29336,12.36503 V 14.73548 Z"
       sodipodi:nodetypes="ccccccc" />
    <path
       id="rect837-6"
       style="fill:#00a693;fill-opacity:1;stroke:none;stroke-width:0"
       d="m 178.90981,150.76983 v 38.46191 l 26.40095,11.53873 0.002,-61.5395 z m 26.4024,-11.53886 0.002,61.5395 26.40095,-11.53873 v -38.46191 z"
       sodipodi:nodetypes="cccccccccc" />
    <path
       id="rect855-2"
       style="fill:#0067a5;fill-opacity:1;stroke:none;stroke-width:0"
       d="M 205.31221,9.2295316 178.90981,20.768251 V 148.73435 l 26.4024,-11.53862 26.40239,11.53862 V 20.768251 Z"
       sodipodi:nodetypes="ccccccc" />
    <path
       id="rect837-6-9"
       style="fill:#00a693;fill-opacity:1;stroke:none;stroke-width:0"
       d="m 65.28495,150.76983 v 38.46192 l 26.400954,11.53872 0.0019,-61.5395 z m 26.402401,-11.53886 0.0019,61.5395 26.400939,-11.53872 v -38.46192 z"
       sodipodi:nodetypes="cccccccccc" />
    <path
       id="rect855-2-2"
       style="fill:#0067a5;fill-opacity:1;stroke:none;stroke-width:0"
       d="M 91.687351,9.2295305 65.28495,20.76825 v 127.9661 l 26.402401,-11.53862 26.402389,11.53862 V 20.76825 Z"
       sodipodi:nodetypes="ccccccc" />
  </g>
</svg>
